^C:\VVID2\MATRIX\VVIDSILA\DEBUG\STDAFX.OBJ|C:\VVID2\MATRIX\VVIDSILA\DEBUG\VVIDSILA.OBJ
/OUT:"C:\VVID2\MATRIX\DEBUG\VVIDSILA.EXE" /INCREMENTAL /NOLOGO KERNEL32.LIB USER32.LIB GDI32.LIB WINSPOOL.LIB COMDLG32.LIB ADVAPI32.LIB SHELL32.LIB OLE32.LIB OLEAUT32.LIB UUID.LIB ODBC32.LIB ODBCCP32.LIB /MANIFEST /MANIFESTUAC:"level='asInvoker' uiAccess='false'" /manifest:embed /DEBUG:FASTLINK /PDB:"C:\VVID2\MATRIX\DEBUG\VVIDSILA.PDB" /SUBSYSTEM:CONSOLE /TLBID:1 /DYNAMICBASE /NXCOMPAT /IMPLIB:"C:\VVID2\MATRIX\DEBUG\VVIDSILA.LIB" /MACHINE:X86 DEBUG\STDAFX.OBJDEBUG\VVIDSILA.OBJ
^D:\VVID\MYBRANCH\VVIDSILA\DEBUG\STDAFX.OBJ|D:\VVID\MYBRANCH\VVIDSILA\DEBUG\VVIDSILA.OBJ
/OUT:"D:\VVID\MYBRANCH\DEBUG\VVIDSILA.EXE" /INCREMENTAL /NOLOGO KERNEL32.LIB USER32.LIB GDI32.LIB WINSPOOL.LIB COMDLG32.LIB ADVAPI32.LIB SHELL32.LIB OLE32.LIB OLEAUT32.LIB UUID.LIB ODBC32.LIB ODBCCP32.LIB /MANIFEST /MANIFESTUAC:"level='asInvoker' uiAccess='false'" /manifest:embed /DEBUG:FASTLINK /PDB:"D:\VVID\MYBRANCH\DEBUG\VVIDSILA.PDB" /SUBSYSTEM:CONSOLE /TLBID:1 /DYNAMICBASE /NXCOMPAT /IMPLIB:"D:\VVID\MYBRANCH\DEBUG\VVIDSILA.LIB" /MACHINE:X86 DEBUG\STDAFX.OBJDEBUG\VVIDSILA.OBJ
