^C:\VVID2\MATRIX\UNITTEST1\X64\DEBUG\STDAFX.OBJ|C:\VVID2\MATRIX\UNITTEST1\X64\DEBUG\UNITTEST1.OBJ
C:\VVID2\MATRIX\X64\DEBUG\UNITTEST1.ILK
C:\VVID2\MATRIX\X64\DEBUG\UNITTEST1.DLL
C:\VVID2\MATRIX\X64\DEBUG\UNITTEST1.PDB
